{
  "public": {
    "appName": "BLITZ",
    "version": "2.5.4.0 (DEV)",
    "environment": "DEVELOPMENT",
    "fingerprint": {
      "appId": "com.gafundraising.fiftyniner.app.id"
    },
    "host": "http://dev.gametime.gafundraising.com:8080/",
    "customUrlScheme": "mobilegametimegafundraising://",
    "hockeyApp": {
      "android": {
        "appId": "fc43bb4d635e4cd1b4d0df848875ca75"
      },
      "ios": {
        "appId": "fc5f74b1852444b091c6ab9cb27dbb53"
      }
    }
  },
  "private": {
    "google": {
      "clientId": "521600253635-64fvg2oi18jq6hci37m43s7hoj7lnst2.apps.googleusercontent.com",
      "secret": "4Mu1gngPeQKOrxs29s2r9xZy"
    },
    "facebook": {
      "appId": "1436913826352789",
      "secret": "6088749409462e0cb56c7a9a5d250ee9"
    },
    "gaoRest": {
      "baseUrl": "http://dev.gacore.ws/Server/SupportOurSaleIntegrationService.svc/REST/",
      "endpoints": {
        "participantRegistration": "RetrieveOnlineParticipant",
        "sms": "SendSms"
      },
      "credentials": {
        "clientId": "GameTime.v1",
        "clientSecret": "c08765e4-2df8-4e7d-8be2-c3c1446b591f"
      }
    },
    "googleUrlShortenerApi": {
      "endpoint": "https://www.googleapis.com/urlshortener/v1/url?key=",
      "apiKey": "AIzaSyD2HRVs9_ppOMakRh-Zmrt1mVh90CKh3sg"
    },
    "firebaseDynamicLinkApi": {
      "endpoint": "https://firebasedynamiclinks.googleapis.com/v1/shortLinks?key=",
      "apiKey": "AIzaSyBm1PSUNLKmN1XqlZTTU2xtcFumXHU8XSY",
      "domainUriPrefix": "blitz.page.link",
      "longDynamicLink": "https://blitz.page.link/?link="
    }
  },
  "path": "/config/development/settings.json"
}